{
	"gridImprovements":
	{
		"*":
		{
			"name":"*"
		},
		"Nothing":
		{
			"name":"Nothing"
		},
		"WanderingCommoner":
		{
			"name":"WanderingCommoner",
			"npcs":
			[
				{
					"race":"Human",
					"class":"Commoner",
					"level":"d1"
				},
				{
					"race":"Dwarf",
					"class":"Commoner",
					"level":"d1"
				}
			],
			"npcCount":"d1"
		}
	}
}