{
  "races": {
    "*":
    {
      "selectable":"False"
    },
    "Small":
    {
      "armorClassBonus": 1,
      "attackRollBonus": 1,
      "skillBonuses":
      {
        "Hide": 4
      },
      "carryCapacity": 0.75
    },
    "Human" :
    {
      "name":"Human",
      "pluralName":"Humans",
      "landSpeed":30,
      "featBonus":{"self": "arg1.level==1 or (arg1.level>=4)"},
      "languages":["common"],
      "bonusLanguages":{"target": "target[\"class\"] != \"Secret\""},
      "vision":["Day"],
      "selectable":"True"
    },
    "Dwarf":
    {
      "name":"Dwarf",
      "pluralName":"Dwarves",
      "possessionName":"Dwarven",
      "initialBonus":{"self": "arg1.abilities[\"CON\"] += 2\n\targ1.abilities[\"CHA\"] -=2"},
      "landSpeed":20,
      "vision":["Day", "Low", "Dark"],
      "skillBonuses":
      {
        "Search": {"target": "arg1.type ==\"Stone\"", "value":2},
        "Appraise": {"target": "arg1.type ==\"Stone\" or arg1.type==\"Metal\"", "value":2},
        "Craft": {"target": "arg1.type ==\"Stone\" or arg1.type==\"Metal\"", "value":2}
      },
      "weaponFamiliarities":{"target":"\"dwarw\" in arg1[\"name\"].lower()"},
      "savingThrows":
      {
        "Poison":2,
        "Spell":2,
        "Spelllike":2
      },
      "attackRollBonus": {"target":"arg1.race[\"type\"] == \"Orc\" or arg1.race[\"type\" == \"Goblinoid\"", "value":1},
      "armorClassBonus": {"target":"target.race[\"class\"] != \"Giant\""},
      "languages":["Common", "Dwarven"],
      "bonusLanguages":["Giant", "Gnome", "Goblin", "Orc", "Terran", "Undercommon"],
      "favoredClass":"Fighter",
      "selectable":"True"
    }
 }
}